<?xml version="1.0" encoding="UTF-8" standalone="no"?>
<svg
   xmlns:dc="http://purl.org/dc/elements/1.1/"
   xmlns:cc="http://creativecommons.org/ns#"
   xmlns:rdf="http://www.w3.org/1999/02/22-rdf-syntax-ns#"
   xmlns:svg="http://www.w3.org/2000/svg"
   xmlns="http://www.w3.org/2000/svg"
   xmlns:sodipodi="http://sodipodi.sourceforge.net/DTD/sodipodi-0.dtd"
   xmlns:inkscape="http://www.inkscape.org/namespaces/inkscape"
   height="0.69999999in"
   x="0in"
   y="0in"
   width="0.69999999in"
   viewBox="0 0 746.66668 746.66669"
   id="svg2"
   version="1.2"
   inkscape:version="0.92.3 (2405546, 2018-03-11)"
   sodipodi:docname="svg.schematic.MAX7219_8digit_display_schematic.svg">
  <sodipodi:namedview
     pagecolor="#ffffff"
     bordercolor="#666666"
     borderopacity="1"
     objecttolerance="10"
     gridtolerance="10"
     guidetolerance="10"
     inkscape:pageopacity="0"
     inkscape:pageshadow="2"
     inkscape:window-width="1920"
     inkscape:window-height="1029"
     id="namedview85"
     showgrid="true"
     inkscape:zoom="11.72619"
     inkscape:cx="-21.149241"
     inkscape:cy="33.599998"
     inkscape:window-x="0"
     inkscape:window-y="28"
     inkscape:window-maximized="1"
     inkscape:current-layer="connector4-1"
     fit-margin-top="0"
     fit-margin-left="0"
     fit-margin-right="0"
     fit-margin-bottom="0"
     units="in"
     inkscape:snap-text-baseline="false">
    <inkscape:grid
       type="xygrid"
       id="grid875"
       units="in"
       spacingx="106.66667"
       spacingy="106.66667"
       originx="-3.9628567e-08"
       originy="106.66667" />
  </sodipodi:namedview>
  <metadata
     id="metadata46">
    <rdf:RDF>
      <cc:Work
         rdf:about="">
        <dc:format>image/svg+xml</dc:format>
        <dc:type
           rdf:resource="http://purl.org/dc/dcmitype/StillImage" />
        <dc:title />
      </cc:Work>
    </rdf:RDF>
  </metadata>
  <defs
     id="defs44" />
  <g
     id="schematic"
     transform="matrix(0.33333,0,0,0.33333,100.00129,138.33547)">
    <g
       id="connector2-1"
       transform="matrix(0,-13.888888,13.888888,0,-431.8483,1455.2744)">
      <line
         x1="-25.044765"
         x2="-3.0871201"
         style="fill:none;stroke:#787878;stroke-width:2.10001731;stroke-linecap:round"
         class="pin"
         id="connector2pin-1"
         y1="78.613281"
         y2="78.613281" />
      <rect
         height="2.1000173"
         x="-26.621111"
         y="77.563026"
         width="2.1000173"
         class="terminal"
         id="connector2terminal-1"
         style="fill:none;stroke:none" />
    </g>
    <g
       id="connector2-2"
       transform="matrix(0,-13.888888,13.888888,0,-111.84501,1455.2743)">
      <line
         x1="-25.044765"
         x2="-3.0871201"
         style="fill:none;stroke:#787878;stroke-width:2.10001731;stroke-linecap:round"
         class="pin"
         id="connector2pin-2"
         y1="78.613281"
         y2="78.613281" />
      <rect
         height="2.1000173"
         x="-26.621111"
         y="77.563026"
         width="2.1000173"
         class="terminal"
         id="connector2terminal-2"
         style="fill:none;stroke:none" />
    </g>
    <g
       id="connector5-2"
       transform="matrix(-13.888888,0,0,13.888888,1563.2326,-226.84885)">
      <line
         x1="-25.09107"
         x2="-4.0881548"
         style="fill:none;stroke:#787878;stroke-width:2.10001731;stroke-linecap:round"
         class="pin"
         id="connector5pin-2"
         y1="78.613281"
         y2="78.613281" />
      <rect
         height="2.1000173"
         x="-26.621111"
         y="77.563026"
         width="2.1000173"
         class="terminal"
         id="connector5terminal-2"
         style="fill:none;stroke:none" />
    </g>
    <g
       id="connector3-2"
       transform="matrix(-13.888888,0,0,13.888888,1570.278,-546.85187)">
      <line
         x1="-25.044765"
         x2="-3.0871201"
         style="fill:none;stroke:#787878;stroke-width:2.10001731;stroke-linecap:round"
         class="pin"
         id="connector3pin-2"
         y1="78.613281"
         y2="78.613281" />
      <rect
         height="2.1000173"
         x="-26.621111"
         y="77.563026"
         width="2.1000173"
         class="terminal"
         id="connector3terminal-2"
         style="fill:none;stroke:none" />
    </g>
    <g
       id="connector1-2"
       transform="matrix(0,13.888888,-13.888888,0,2071.8571,-45.272932)">
      <line
         x1="-25.044765"
         x2="-3.0871201"
         style="fill:none;stroke:#787878;stroke-width:2.10001731;stroke-linecap:round"
         class="pin"
         id="connector1pin-2"
         y1="78.613281"
         y2="78.613281"
         inkscape:label="#connector1pin-2" />
      <rect
         height="2.1000173"
         x="-26.621111"
         y="77.563026"
         width="2.1000173"
         class="terminal"
         id="connector1terminal-2"
         style="fill:none;stroke:none" />
    </g>
    <g
       id="connector1-1"
       transform="matrix(0,13.888888,-13.888888,0,1751.8538,-45.272932)">
      <line
         x1="-25.044765"
         x2="-3.0871201"
         style="fill:none;stroke:#787878;stroke-width:2.10001731;stroke-linecap:round"
         class="pin"
         id="connector1pin-1"
         y1="78.613281"
         y2="78.613281"
         inkscape:label="#connector1pin-1" />
      <rect
         height="2.1000173"
         x="-26.621111"
         y="77.563026"
         width="2.1000173"
         class="terminal"
         id="connector1terminal-1"
         style="fill:none;stroke:none" />
    </g>
    <g
       id="connector5-1"
       transform="matrix(13.888888,0,0,13.888888,69.730758,-226.84866)">
      <line
         x1="-25.09107"
         x2="-4.0881548"
         style="fill:none;stroke:#787878;stroke-width:2.10001731;stroke-linecap:round"
         class="pin"
         id="connector5pin-1"
         y1="78.613281"
         y2="78.613281" />
      <rect
         height="2.1000173"
         x="-26.621111"
         y="77.563026"
         width="2.1000173"
         class="terminal"
         id="connector5terminal-1"
         style="fill:none;stroke:none" />
    </g>
    <g
       id="connector3-1"
       transform="matrix(13.888888,0,0,13.888888,69.730758,-546.85187)">
      <line
         x1="-25.044765"
         x2="-3.0871201"
         style="fill:none;stroke:#787878;stroke-width:2.10001731;stroke-linecap:round"
         class="pin"
         id="connector3pin-1"
         y1="78.613281"
         y2="78.613281" />
      <rect
         height="2.1000173"
         x="-26.621111"
         y="77.563026"
         width="2.1000173"
         class="terminal"
         id="connector3terminal-1"
         style="fill:none;stroke:none" />
    </g>
    <rect
       id="rect"
       width="1567.1564"
       y="-78.577347"
       x="36.426155"
       style="fill:#ffffff;stroke:#000000;stroke-width:32.85964203;stroke-linecap:round;stroke-linejoin:round;stroke-miterlimit:4;stroke-dasharray:none"
       height="1567.1564" />
    <text
       id="connector1label-1"
       font-size="130"
       y="50.927708"
       x="823.08295"
       style="font-size:130px;line-height:0%;font-family:'Droid Sans';text-align:center;text-anchor:middle;fill:#8c8c8c;fill-opacity:1;stroke:none">VCC</text>
    <text
       id="connector2label-1"
       font-size="130"
       y="1446.9885"
       x="820.16302"
       style="font-size:130px;line-height:0%;font-family:'Droid Sans';text-align:center;text-anchor:middle;fill:#8c8c8c;fill-opacity:1;stroke:none">GND</text>
    <text
       id="connector3label-1"
       font-size="130"
       y="592.31995"
       x="55.885639"
       style="font-size:130px;line-height:0%;font-family:'Droid Sans';text-anchor:start;fill:#8c8c8c;fill-opacity:1;stroke:none">CS</text>
    <text
       id="connector5label-1"
       font-size="130"
       y="912.32318"
       x="69.788902"
       style="font-size:130px;line-height:0%;font-family:'Droid Sans';text-anchor:start;fill:#8c8c8c;fill-opacity:1;stroke:none">CLK</text>
    <g
       id="digit"
       transform="matrix(44.44488,0,0,44.44488,-139.81966,-94.829221)">
      <polygon
         id="polygon1312"
         points="25.067,18.399 25.537,17.981 25.468,17.905 24.907,17.263 17.422,17.263 16.585,18.011 16.873,18.34 17.214,18.728 24.698,18.728 " />
      <path
         id="path1350"
         d="m 27.722,26.329 c -0.498,0 -0.903,0.405 -0.903,0.903 0,0.499 0.405,0.904 0.903,0.904 0.5,0 0.903,-0.405 0.903,-0.904 0.002,-0.498 -0.404,-0.903 -0.903,-0.903 z"
         inkscape:connector-curvature="0" />
      <path
         id="path1304"
         d="m 26.071,9.62 -0.909,7.419 0.401,0.458 0.228,0.258 0.838,-0.746 0.912,-7.433 C 27.598,9.124 27.494,8.697 27.253,8.355 L 26.19,9.302 26.054,9.42 c 0.019,0.065 0.026,0.133 0.017,0.2 z"
         inkscape:connector-curvature="0" />
      <path
         id="path1308"
         d="m 25.639,9.127 c 0.064,0 0.131,0.018 0.188,0.042 L 27.025,8.104 C 26.717,7.82 26.31,7.665 25.858,7.665 h -7.021 c -0.467,0 -0.931,0.165 -1.32,0.467 l 0.571,0.653 0.337,0.385 c 0.063,-0.023 0.125,-0.04 0.19,-0.04 z"
         inkscape:connector-curvature="0" />
      <path
         id="path1320"
         d="m 24.922,18.981 -0.913,7.433 c -0.008,0.064 -0.027,0.128 -0.063,0.188 l 0.475,0.541 0.437,0.496 c 0.346,-0.354 0.563,-0.8 0.621,-1.268 l 0.911,-7.42 -0.631,-0.717 -0.488,0.438 z"
         inkscape:connector-curvature="0" />
      <path
         id="path1326"
         d="m 16.481,26.864 c -0.065,0 -0.131,-0.015 -0.188,-0.043 l -1.2,1.068 c 0.309,0.281 0.718,0.438 1.167,0.438 h 7.021 c 0.469,0 0.932,-0.165 1.321,-0.468 l -0.91,-1.036 c -0.063,0.025 -0.125,0.039 -0.188,0.039 z"
         inkscape:connector-curvature="0" />
      <path
         id="path1332"
         d="m 16.332,18.236 -0.837,0.746 -0.913,7.433 c -0.057,0.451 0.046,0.879 0.288,1.224 l 1.198,-1.067 c -0.021,-0.063 -0.026,-0.129 -0.021,-0.196 l 0.911,-7.419 -0.307,-0.349 z"
         inkscape:connector-curvature="0" />
      <path
         id="path1340"
         d="m 16.643,9.618 -0.911,7.421 0.629,0.716 0.838,-0.746 0.912,-7.433 C 18.12,9.513 18.141,9.448 18.174,9.39 L 17.266,8.353 c -0.347,0.355 -0.565,0.798 -0.623,1.265 z"
         inkscape:connector-curvature="0" />
    </g>
    <text
       id="connector3label-2"
       font-size="130"
       y="592.32001"
       x="1571.6152"
       style="font-size:130.00001526px;line-height:0%;font-family:'Droid Sans';text-align:end;text-anchor:end;fill:#8c8c8c;fill-opacity:1;stroke:none;stroke-width:1">LOAD</text>
    <text
       id="connector5label-2"
       font-size="130"
       y="912.32318"
       x="1561.7129"
       style="font-size:130.00001526px;line-height:0%;font-family:'Droid Sans';text-align:end;text-anchor:end;fill:#8c8c8c;fill-opacity:1;stroke:none;stroke-width:1">CLK</text>
    <g
       id="connector4-1"
       transform="matrix(13.888888,0,0,13.888888,69.730758,-866.85515)">
      <line
         x1="-25.044765"
         x2="-3.0871201"
         style="fill:none;stroke:#787878;stroke-width:2.10001731;stroke-linecap:round"
         class="pin"
         id="connector4pin-1"
         y1="78.613281"
         y2="78.613281" />
      <rect
         height="2.1000173"
         x="-26.621111"
         y="77.563026"
         width="2.1000173"
         class="terminal"
         id="connector4terminal-1"
         style="fill:none;stroke:none" />
    </g>
    <text
       id="connector4label-1"
       font-size="130"
       y="272.31671"
       x="55.885639"
       style="font-size:130.00001526px;line-height:0%;font-family:'Droid Sans';text-anchor:start;fill:#8c8c8c;fill-opacity:1;stroke:none;stroke-width:1"
       inkscape:label="#connector4label">DI</text>
    <g
       id="connector4-2"
       transform="matrix(-13.888888,0,0,13.888888,1570.278,-866.85515)"
       inkscape:label="#connector4-2">
      <line
         x1="-25.044765"
         x2="-3.0871201"
         style="fill:none;stroke:#787878;stroke-width:2.10001731;stroke-linecap:round"
         class="pin"
         id="connector4pin-2"
         y1="78.613281"
         y2="78.613281"
         inkscape:label="#connector4pin-2" />
      <rect
         height="2.1000173"
         x="-26.621111"
         y="77.563026"
         width="2.1000173"
         class="terminal"
         id="connector4terminal-2"
         style="fill:none;stroke:none"
         inkscape:label="#connector4terminal-2" />
    </g>
    <text
       id="connector4label-2"
       font-size="130"
       y="272.31671"
       x="1571.6152"
       style="font-size:130.00003052px;line-height:0%;font-family:'Droid Sans';text-align:end;text-anchor:end;fill:#8c8c8c;fill-opacity:1;stroke:none;stroke-width:1">DOUT</text>
  </g>
</svg>
