<?xml version='1.0' encoding='UTF-8' standalone='no'?>
<svg
  xmlns:dc="http://purl.org/dc/elements/1.1/"
  xmlns:cc="http://creativecommons.org/ns#"
  xmlns:rdf="http://www.w3.org/1999/02/22-rdf-syntax-ns#"
  xmlns:svg="http://www.w3.org/2000/svg"
  xmlns="http://www.w3.org/2000/svg"
  xmlns:sodipodi="http://sodipodi.sourceforge.net/DTD/sodipodi-0.dtd"
  xmlns:inkscape="http://www.inkscape.org/namespaces/inkscape"
  id="svg2"
  height="1.8122302in"
  x="0in"
  viewBox="0 0 1692.2153 1812.2308"
  y="0in"
  version="1.2"
  width="1.6922148in"
  sodipodi:docname="svg.pcb.Nokia_5110_LCD_8pin_pcb.svg"
  inkscape:version="0.92.3 (2405546, 2018-03-11)">
  <sodipodi:namedview
    pagecolor="#ffffff"
    bordercolor="#666666"
    borderopacity="1"
    objecttolerance="10"
    gridtolerance="10"
    guidetolerance="10"
    inkscape:pageopacity="0"
    inkscape:pageshadow="2"
    inkscape:window-width="1920"
    inkscape:window-height="1029"
    id="namedview35"
    showgrid="true"
    inkscape:zoom="4.2907725"
    inkscape:cx="-73.526383"
    inkscape:cy="75.754908"
    inkscape:window-x="0"
    inkscape:window-y="28"
    inkscape:window-maximized="1"
    inkscape:current-layer="svg2"
    fit-margin-top="0"
    fit-margin-left="0"
    fit-margin-right="0"
    fit-margin-bottom="0">
    <inkscape:grid
      type="xygrid"
      id="grid838"
      units="in"
      originx="556.11114"
      originy="156.1111"
      spacingx="9.9999999"
      spacingy="9.9999999"
    />
  </sodipodi:namedview>
  <metadata
    id="metadata40">
    <rdf:RDF>
      <cc:Work
        rdf:about="">
        <dc:format>image/svg+xml</dc:format>
        <dc:type
          rdf:resource="http://purl.org/dc/dcmitype/StillImage"
        />
        <dc:title/>
      </cc:Work>
    </rdf:RDF>
  </metadata>
  <defs
    id="defs38"
  />
  <desc
    id="desc4">
    <referenceFile>svg.pcb.Nokia_5110_LCD_8pin_pcb.svg</referenceFile>
  </desc>
  <g
    id="silkscreen"
    inkscape:label="#silkscreen">
    <path
      inkscape:label="#silkscreen1"
      id="silkscreen1"
      d="M 6.1111093,6.1111093 V 1806.1191 H 1686.1037 V 6.1111093 Z M 156.11521,34.126209 a 72,72 0 0 1 72.00112,72.001201 72,72 0 0 1 -72.00112,72.0011 72,72 0 0 1 -72.001151,-72.0011 72,72 0 0 1 72.001151,-72.001201 z m 1349.99589,0 a 72,72 0 0 1 72.0012,72.001201 72,72 0 0 1 -72.0012,72.0011 72,72 0 0 1 -72.0011,-72.0011 72,72 0 0 1 72.0011,-72.001201 z M 156.11521,1634.122 a 72,72 0 0 1 72.00112,72.0011 72,72 0 0 1 -72.00112,72.0011 72,72 0 0 1 -72.001151,-72.0011 72,72 0 0 1 72.001151,-72.0011 z m 1349.99589,0 a 72,72 0 0 1 72.0012,72.0011 72,72 0 0 1 -72.0012,72.0011 72,72 0 0 1 -72.0011,-72.0011 72,72 0 0 1 72.0011,-72.0011 z"
      inkscape:connector-curvature="0"
      stroke-miterlimit="4"
      opacity="1"
      fill="none"
      fill-opacity="1"
      fill-rule="evenodd"
      stroke="#000000"
      stroke-width="12.22221851"
      stroke-linecap="butt"
      stroke-linejoin="round"
      stroke-dasharray="none"
      stroke-dashoffset="0"
      stroke-opacity="1"
    />
    <text
      id="name"
      y="936.44989"
      x="844.8056"
      xml:space="preserve"
      font-style="normal"
      font-weight="normal"
      font-size="416.66677856"
      line-height="125%"
      text-align="center"
      letter-spacing="0px"
      word-spacing="0px"
      font-family="'Droid Sans'"
      text-anchor="middle"
      fill="#000000"
      fill-opacity="1"
      stroke="none"
      stroke-width="10.41666889px"
      stroke-linecap="butt"
      stroke-linejoin="miter"
      stroke-opacity="1">
      <tspan
        y="936.44989"
        x="911.13049"
        id="tspan6950"
        sodipodi:role="line"
        font-style="normal"
        font-variant="normal"
        font-weight="normal"
        font-stretch="normal"
        font-size="83.33335114"
        text-align="center"
        font-family="'Droid Sans'"
        text-anchor="middle"
        fill="#000000"
        fill-opacity="1"
        stroke-width="10.41666889px">LCD 5110</tspan>
    </text>
  </g>
  <g
    id="copper1"
    gorn="0.1"
    transform="translate(-93.898267,-43.119663)">
    <g
      id="copper0"
      gorn="0.1.0">
      <rect
        height="55"
        x="572.5"
        id="square"
        y="1672.5"
        gorn="0.1.0.0"
        width="55"
        fill="none"
        stroke="#ffbf00"
        stroke-width="20"
      />
      <circle
        r="29"
        cy="1700"
        cx="600"
        id="connector0pin"
        gorn="0.1.0.1"
        fill="none"
        stroke="#ffbf00"
        stroke-width="20"
      />
      <circle
        r="29"
        cy="1700"
        cx="700"
        id="connector1pin"
        gorn="0.1.0.3"
        fill="none"
        stroke="#ffbf00"
        stroke-width="20"
      />
      <circle
        r="29"
        cy="1700"
        cx="800"
        id="connector2pin"
        gorn="0.1.0.5"
        fill="none"
        stroke="#ffbf00"
        stroke-width="20"
      />
      <circle
        r="29"
        cy="1700"
        cx="900"
        id="connector3pin"
        gorn="0.1.0.7"
        fill="none"
        stroke="#ffbf00"
        stroke-width="20"
      />
      <circle
        r="29"
        cy="1700"
        cx="1000"
        id="connector4pin"
        gorn="0.1.0.9"
        fill="none"
        stroke="#ffbf00"
        stroke-width="20"
      />
      <circle
        r="29"
        cy="1700"
        cx="1100"
        id="connector5pin"
        gorn="0.1.0.11"
        inkscape:label="#connector5pin"
        fill="none"
        stroke="#ffbf00"
        stroke-width="20"
      />
      <circle
        r="29"
        cy="1700"
        cx="1200"
        id="connector6pin"
        gorn="0.1.0.13"
        fill="none"
        stroke="#ffbf00"
        stroke-width="20"
      />
      <circle
        r="29"
        cy="1700"
        cx="1300"
        id="connector7pin"
        gorn="0.1.0.15"
        fill="none"
        stroke="#ffbf00"
        stroke-width="20"
      />
    </g>
  </g>
</svg>
